simulation/qsim/Hill_Cipher_A1.msim.vcd
$comment
	File created using the following command:
		vcd file Hill_Cipher_A1.msim.vcd -direction
$end
$date
	Mon Jan 18 21:42:28 2016
$end
$version
	ModelSim Version 10.4b
$end
$timescale
	1ps
$end

$scope module Multiplexer_vlg_vec_tst $end
$var reg 4 ! dk11 [3:0] $end
$var reg 4 " dk12 [3:0] $end
$var reg 4 # dk13 [3:0] $end
$var reg 4 $ dk21 [3:0] $end
$var reg 4 % dk22 [3:0] $end
$var reg 4 & dk23 [3:0] $end
$var reg 4 ' dk31 [3:0] $end
$var reg 4 ( dk32 [3:0] $end
$var reg 4 ) dk33 [3:0] $end
$var reg 4 * k11 [3:0] $end
$var reg 4 + k12 [3:0] $end
$var reg 4 , k13 [3:0] $end
$var reg 4 - k21 [3:0] $end
$var reg 4 . k22 [3:0] $end
$var reg 4 / k23 [3:0] $end
$var reg 4 0 k31 [3:0] $end
$var reg 4 1 k32 [3:0] $end
$var reg 4 2 k33 [3:0] $end
$var reg 1 3 sel $end
$var wire 1 4 out_key11 [3] $end
$var wire 1 5 out_key11 [2] $end
$var wire 1 6 out_key11 [1] $end
$var wire 1 7 out_key11 [0] $end
$var wire 1 8 out_key12 [3] $end
$var wire 1 9 out_key12 [2] $end
$var wire 1 : out_key12 [1] $end
$var wire 1 ; out_key12 [0] $end
$var wire 1 < out_key13 [3] $end
$var wire 1 = out_key13 [2] $end
$var wire 1 > out_key13 [1] $end
$var wire 1 ? out_key13 [0] $end
$var wire 1 @ out_key21 [3] $end
$var wire 1 A out_key21 [2] $end
$var wire 1 B out_key21 [1] $end
$var wire 1 C out_key21 [0] $end
$var wire 1 D out_key22 [3] $end
$var wire 1 E out_key22 [2] $end
$var wire 1 F out_key22 [1] $end
$var wire 1 G out_key22 [0] $end
$var wire 1 H out_key23 [3] $end
$var wire 1 I out_key23 [2] $end
$var wire 1 J out_key23 [1] $end
$var wire 1 K out_key23 [0] $end
$var wire 1 L out_key31 [3] $end
$var wire 1 M out_key31 [2] $end
$var wire 1 N out_key31 [1] $end
$var wire 1 O out_key31 [0] $end
$var wire 1 P out_key32 [3] $end
$var wire 1 Q out_key32 [2] $end
$var wire 1 R out_key32 [1] $end
$var wire 1 S out_key32 [0] $end
$var wire 1 T out_key33 [3] $end
$var wire 1 U out_key33 [2] $end
$var wire 1 V out_key33 [1] $end
$var wire 1 W out_key33 [0] $end

$scope module i1 $end
$var wire 1 X gnd $end
$var wire 1 Y vcc $end
$var wire 1 Z unknown $end
$var tri1 1 [ devclrn $end
$var tri1 1 \ devpor $end
$var tri1 1 ] devoe $end
$var wire 1 ^ out_key11[0]~output_o $end
$var wire 1 _ out_key11[1]~output_o $end
$var wire 1 ` out_key11[2]~output_o $end
$var wire 1 a out_key11[3]~output_o $end
$var wire 1 b out_key12[0]~output_o $end
$var wire 1 c out_key12[1]~output_o $end
$var wire 1 d out_key12[2]~output_o $end
$var wire 1 e out_key12[3]~output_o $end
$var wire 1 f out_key13[0]~output_o $end
$var wire 1 g out_key13[1]~output_o $end
$var wire 1 h out_key13[2]~output_o $end
$var wire 1 i out_key13[3]~output_o $end
$var wire 1 j out_key21[0]~output_o $end
$var wire 1 k out_key21[1]~output_o $end
$var wire 1 l out_key21[2]~output_o $end
$var wire 1 m out_key21[3]~output_o $end
$var wire 1 n out_key22[0]~output_o $end
$var wire 1 o out_key22[1]~output_o $end
$var wire 1 p out_key22[2]~output_o $end
$var wire 1 q out_key22[3]~output_o $end
$var wire 1 r out_key23[0]~output_o $end
$var wire 1 s out_key23[1]~output_o $end
$var wire 1 t out_key23[2]~output_o $end
$var wire 1 u out_key23[3]~output_o $end
$var wire 1 v out_key31[0]~output_o $end
$var wire 1 w out_key31[1]~output_o $end
$var wire 1 x out_key31[2]~output_o $end
$var wire 1 y out_key31[3]~output_o $end
$var wire 1 z out_key32[0]~output_o $end
$var wire 1 { out_key32[1]~output_o $end
$var wire 1 | out_key32[2]~output_o $end
$var wire 1 } out_key32[3]~output_o $end
$var wire 1 ~ out_key33[0]~output_o $end
$var wire 1 !! out_key33[1]~output_o $end
$var wire 1 "! out_key33[2]~output_o $end
$var wire 1 #! out_key33[3]~output_o $end
$var wire 1 $! k11[0]~input_o $end
$var wire 1 %! dk11[0]~input_o $end
$var wire 1 &! sel~input_o $end
$var wire 1 '! out_key11~0_combout $end
$var wire 1 (! dk11[1]~input_o $end
$var wire 1 )! k11[1]~input_o $end
$var wire 1 *! out_key11~1_combout $end
$var wire 1 +! k11[2]~input_o $end
$var wire 1 ,! dk11[2]~input_o $end
$var wire 1 -! out_key11~2_combout $end
$var wire 1 .! k11[3]~input_o $end
$var wire 1 /! dk11[3]~input_o $end
$var wire 1 0! out_key11~3_combout $end
$var wire 1 1! dk12[0]~input_o $end
$var wire 1 2! k12[0]~input_o $end
$var wire 1 3! out_key12~0_combout $end
$var wire 1 4! dk12[1]~input_o $end
$var wire 1 5! k12[1]~input_o $end
$var wire 1 6! out_key12~1_combout $end
$var wire 1 7! dk12[2]~input_o $end
$var wire 1 8! k12[2]~input_o $end
$var wire 1 9! out_key12~2_combout $end
$var wire 1 :! dk12[3]~input_o $end
$var wire 1 ;! k12[3]~input_o $end
$var wire 1 <! out_key12~3_combout $end
$var wire 1 =! dk13[0]~input_o $end
$var wire 1 >! k13[0]~input_o $end
$var wire 1 ?! out_key13~0_combout $end
$var wire 1 @! k13[1]~input_o $end
$var wire 1 A! dk13[1]~input_o $end
$var wire 1 B! out_key13~1_combout $end
$var wire 1 C! dk13[2]~input_o $end
$var wire 1 D! k13[2]~input_o $end
$var wire 1 E! out_key13~2_combout $end
$var wire 1 F! k13[3]~input_o $end
$var wire 1 G! dk13[3]~input_o $end
$var wire 1 H! out_key13~3_combout $end
$var wire 1 I! dk21[0]~input_o $end
$var wire 1 J! k21[0]~input_o $end
$var wire 1 K! out_key21~0_combout $end
$var wire 1 L! dk21[1]~input_o $end
$var wire 1 M! k21[1]~input_o $end
$var wire 1 N! out_key21~1_combout $end
$var wire 1 O! dk21[2]~input_o $end
$var wire 1 P! k21[2]~input_o $end
$var wire 1 Q! out_key21~2_combout $end
$var wire 1 R! k21[3]~input_o $end
$var wire 1 S! dk21[3]~input_o $end
$var wire 1 T! out_key21~3_combout $end
$var wire 1 U! k22[0]~input_o $end
$var wire 1 V! dk22[0]~input_o $end
$var wire 1 W! out_key22~0_combout $end
$var wire 1 X! k22[1]~input_o $end
$var wire 1 Y! dk22[1]~input_o $end
$var wire 1 Z! out_key22~1_combout $end
$var wire 1 [! k22[2]~input_o $end
$var wire 1 \! dk22[2]~input_o $end
$var wire 1 ]! out_key22~2_combout $end
$var wire 1 ^! dk22[3]~input_o $end
$var wire 1 _! k22[3]~input_o $end
$var wire 1 `! out_key22~3_combout $end
$var wire 1 a! k23[0]~input_o $end
$var wire 1 b! dk23[0]~input_o $end
$var wire 1 c! out_key23~0_combout $end
$var wire 1 d! dk23[1]~input_o $end
$var wire 1 e! k23[1]~input_o $end
$var wire 1 f! out_key23~1_combout $end
$var wire 1 g! dk23[2]~input_o $end
$var wire 1 h! k23[2]~input_o $end
$var wire 1 i! out_key23~2_combout $end
$var wire 1 j! dk23[3]~input_o $end
$var wire 1 k! k23[3]~input_o $end
$var wire 1 l! out_key23~3_combout $end
$var wire 1 m! k31[0]~input_o $end
$var wire 1 n! dk31[0]~input_o $end
$var wire 1 o! out_key31~0_combout $end
$var wire 1 p! dk31[1]~input_o $end
$var wire 1 q! k31[1]~input_o $end
$var wire 1 r! out_key31~1_combout $end
$var wire 1 s! k31[2]~input_o $end
$var wire 1 t! dk31[2]~input_o $end
$var wire 1 u! out_key31~2_combout $end
$var wire 1 v! dk31[3]~input_o $end
$var wire 1 w! k31[3]~input_o $end
$var wire 1 x! out_key31~3_combout $end
$var wire 1 y! dk32[0]~input_o $end
$var wire 1 z! k32[0]~input_o $end
$var wire 1 {! out_key32~0_combout $end
$var wire 1 |! k32[1]~input_o $end
$var wire 1 }! dk32[1]~input_o $end
$var wire 1 ~! out_key32~1_combout $end
$var wire 1 !" dk32[2]~input_o $end
$var wire 1 "" k32[2]~input_o $end
$var wire 1 #" out_key32~2_combout $end
$var wire 1 $" dk32[3]~input_o $end
$var wire 1 %" k32[3]~input_o $end
$var wire 1 &" out_key32~3_combout $end
$var wire 1 '" k33[0]~input_o $end
$var wire 1 (" dk33[0]~input_o $end
$var wire 1 )" out_key33~0_combout $end
$var wire 1 *" k33[1]~input_o $end
$var wire 1 +" dk33[1]~input_o $end
$var wire 1 ," out_key33~1_combout $end
$var wire 1 -" k33[2]~input_o $end
$var wire 1 ." dk33[2]~input_o $end
$var wire 1 /" out_key33~2_combout $end
$var wire 1 0" dk33[3]~input_o $end
$var wire 1 1" k33[3]~input_o $end
$var wire 1 2" out_key33~3_combout $end
$upscope $end
$upscope $end
$enddefinitions $end
#0
$dumpvars
b1011 !
b1011 "
b1011 #
b1011 $
b1011 %
b1011 &
b1011 '
b1011 (
b1011 )
b1010 *
b1010 +
b1010 ,
b1010 -
b1010 .
b1010 /
b1010 0
b1010 1
b1010 2
13
x7
x6
x5
x4
x;
x:
x9
x8
x?
x>
x=
x<
xC
xB
xA
x@
xG
xF
xE
xD
xK
xJ
xI
xH
xO
xN
xM
xL
xS
xR
xQ
xP
xW
xV
xU
xT
0X
1Y
xZ
1[
1\
1]
x^
x_
x`
xa
xb
xc
xd
xe
xf
xg
xh
xi
xj
xk
xl
xm
xn
xo
xp
xq
xr
xs
xt
xu
xv
xw
xx
xy
xz
x{
x|
x}
x~
x!!
x"!
x#!
0$!
1%!
1&!
x'!
1(!
1)!
x*!
0+!
0,!
x-!
1.!
1/!
x0!
11!
02!
x3!
14!
15!
x6!
07!
08!
x9!
1:!
1;!
x<!
1=!
0>!
x?!
1@!
1A!
xB!
0C!
0D!
xE!
1F!
1G!
xH!
1I!
0J!
xK!
1L!
1M!
xN!
0O!
0P!
xQ!
1R!
1S!
xT!
0U!
1V!
xW!
1X!
1Y!
xZ!
0[!
0\!
x]!
1^!
1_!
x`!
0a!
1b!
xc!
1d!
1e!
xf!
0g!
0h!
xi!
1j!
1k!
xl!
0m!
1n!
xo!
1p!
1q!
xr!
0s!
0t!
xu!
1v!
1w!
xx!
1y!
0z!
x{!
1|!
1}!
x~!
0!"
0""
x#"
1$"
1%"
x&"
0'"
1("
x)"
1*"
1+"
x,"
0-"
0."
x/"
10"
11"
x2"
$end
#2967
1N!
#3111
1T!
#3126
16!
#3278
1<!
#3339
1,"
#3342
1B!
#3351
1*!
#3377
0-!
#3381
0E!
#3384
1l!
#3409
12"
#3437
1~!
#3473
1Z!
#3478
10!
#3547
0?!
#3604
0/"
#3635
1r!
#3682
0i!
#3692
1x!
#3693
0]!
#3694
0K!
#3702
0c!
#3708
0)"
#3709
0W!
#3710
1&"
#3711
1`!
#3722
1f!
#3790
0#"
#3816
09!
#3918
0u!
#3932
0'!
#3999
1H!
#4117
0{!
#4118
03!
0o!
#4180
0Q!
#5882
1k
1B
#6208
1m
1@
#6375
1e
18
#6569
1!!
1V
#6778
1c
1:
#6790
1#!
1T
#6795
0"!
0U
#6804
0h
0=
#6854
1o
1F
#6904
0`
05
#6942
1_
16
#6946
0f
0?
#6994
1{
1R
#7071
1g
1>
#7085
1u
1H
#7122
0r
0K
#7133
0~
0W
#7196
1w
1N
#7203
0b
0;
#7218
1a
14
#7314
1s
1J
#7322
0n
0G
#7486
0|
0Q
#7489
0x
0M
#7533
0j
0C
#7604
0d
09
#7614
1y
1L
#7704
0p
0E
#7736
0^
07
#7763
1}
1P
#7826
1q
1D
#7927
0v
0O
#7971
0t
0I
#8255
0z
0S
#8900
1i
1<
#9287
0l
0A
#100000
03
#100741
0&!
#104333
1?!
#104803
1K!
#104809
1'!
#104810
1c!
#104817
1)"
#104821
1W!
#105183
13!
#105185
1{!
#105186
1o!
#107800
1f
1?
#108237
1r
1K
#108264
1b
1;
#108286
1~
1W
#108483
1n
1G
#108650
1^
17
#108674
1j
1C
#108996
1v
1O
#109294
1z
1S
#300000
13
#300576
1&!
#303901
0?!
#304270
0K!
#304274
0'!
#304278
0c!
#304284
0)"
#304285
0W!
#304693
0{!
#304694
03!
0o!
#307300
0f
0?
#307698
0r
0K
#307709
0~
0W
#307779
0b
0;
#307898
0n
0G
#308078
0^
07
#308109
0j
0C
#308503
0v
0O
#308831
0z
0S
#400000
03
#400741
0&!
#404333
1?!
#404803
1K!
#404809
1'!
#404810
1c!
#404817
1)"
#404821
1W!
#405183
13!
#405185
1{!
#405186
1o!
#407800
1f
1?
#408237
1r
1K
#408264
1b
1;
#408286
1~
1W
#408483
1n
1G
#408650
1^
17
#408674
1j
1C
#408996
1v
1O
#409294
1z
1S
#600000
13
#600576
1&!
#603901
0?!
#604270
0K!
#604274
0'!
#604278
0c!
#604284
0)"
#604285
0W!
#604693
0{!
#604694
03!
0o!
#607300
0f
0?
#607698
0r
0K
#607709
0~
0W
#607779
0b
0;
#607898
0n
0G
#608078
0^
07
#608109
0j
0C
#608503
0v
0O
#608831
0z
0S
#700000
03
#700741
0&!
#704333
1?!
#704803
1K!
#704809
1'!
#704810
1c!
#704817
1)"
#704821
1W!
#705183
13!
#705185
1{!
#705186
1o!
#707800
1f
1?
#708237
1r
1K
#708264
1b
1;
#708286
1~
1W
#708483
1n
1G
#708650
1^
17
#708674
1j
1C
#708996
1v
1O
#709294
1z
1S
#990000
b11 !
b1 !
b0 !
b11 "
b1 "
b0 "
b11 #
b1 #
b0 #
b11 $
b1 $
b0 $
b11 %
b1 %
b0 %
b11 &
b1 &
b0 &
b11 '
b1 '
b0 '
b11 (
b1 (
b0 (
b11 )
b1 )
b0 )
#990719
0j!
#990721
01!
#990729
0%!
0^!
0d!
0v!
0p!
0n!
0y!
#990731
04!
0S!
#990739
0(!
0=!
0I!
0V!
0b!
0$"
0+"
#990741
0L!
0Y!
#990749
0G!
0A!
0}!
0("
#990761
0/!
0:!
00"
#993882
0N!
#993914
02"
#994002
0T!
#994150
0l!
#994164
06!
#994169
0H!
#994189
0<!
0Z!
#994233
0c!
#994244
0W!
#994353
0,"
#994367
0o!
#994368
0B!
#994370
0*!
#994408
0)"
#994488
03!
#994490
0~!
#994530
00!
#994570
0'!
#994583
0{!
#994638
0r!
#994657
0?!
#994743
0x!
#994789
0K!
#994803
0`!
#995028
0f!
#995246
0&"
#996777
0k
0B
#997089
0m
0@
#997281
0#!
0T
#997283
0e
08
#997525
0!!
0V
#997550
0o
0F
#997573
0b
0;
#997653
0r
0K
#997798
0u
0H
#997833
0~
0W
#997834
0c
0:
#997857
0n
0G
#997910
0_
06
#998018
0{
0R
#998056
0f
0?
#998121
0g
0>
#998166
0w
0N
#998176
0v
0O
#998295
0a
04
#998374
0^
07
#998583
0s
0J
#998628
0j
0C
#998639
0y
0L
#998721
0z
0S
#998934
0q
0D
#999112
0i
0<
#999351
0}
0P
